Disciplina Métodos Quantitativos Aplicados à Ciência Política
…
---

## Importando banco de dados

- As informações foram acessadas pelo banco de Dados Abertos do IBAMA no [link](http://dadosabertos.ibama.gov.br/dataset/relatorio-de-licencas-ambientais-de-atividades-e-empreendimentos-emitidas-pelo-ibama)

- O formato do arquivo utilizado é (*.csv*)

```r
licencas <- read_csv2("sislic-licencas.csv")
janitor::clean_names(licencas)
```

```
## # A tibble: 10,231 x 10
##    des_tipolicenca num_licenca dat_emissao dat_vencimento nom_empreendime~
##    <chr>           <chr>       <chr>       <chr>          <chr>           
##  1 Anuência        538/2011    06/07/2011  06/07/2016     Perfuração Marí~
##  2 Anuência        538*/2011   06/07/2011  06/07/2016     Perfuração - Bl~
##  3 Anuência        616/2011    21/07/2011  31/12/2012     Atividade de Pe~
##  4 Anuência        633/2011    25/07/2011  28/02/2016     Perfuração Marí~
##  5 Anuência        638/2011    27/07/2011  28/02/2016     Perfuração Marí~
##  6 Anuência        678/2011    04/08/2011  29/04/2011     Extração minera~
##  7 Anuência        766/2011    02/09/2011  28/04/2013     Perfuração Marí~
##  8 Anuência        765/2011    02/09/2011  14/02/2014     Perfuração Marí~
##  9 Anuência        917/2011    07/10/2011  31/12/2012     Atividade de Pe~
## 10 Anuência        957/2011    19/10/2011  25/02/2014     Ampliação do Si~
## # ... with 10,221 more rows, and 5 more variables: nom_pessoa <chr>,
## #   num_processo_ibama <chr>, des_tipologia <chr>,
## #   ultima_atualizacao_relatorio <chr>, pac <chr>
```
…
